<svg width="8" height="12" viewBox="0 0 8 12" fill="none" xmlns="http://www.w3.org/2000/svg">
<path fill-rule="evenodd" clip-rule="evenodd" d="M7.40039 10.6L6.00039 12L0.000391054 6L6.00039 -1.22392e-07L7.40039 1.4L2.80039 6L7.40039 10.6Z" fill="white"/>
</svg>
