<svg width="24" height="24" viewBox="0 0 24 24" fill="none" xmlns="http://www.w3.org/2000/svg">
<path fill-rule="evenodd" clip-rule="evenodd" d="M19 6H17C15.896 6 15 6.896 15 8V11H9V8C9 6.896 8.104 6 7 6H5C3.896 6 3 6.896 3 8V16C3 17.105 3.896 18 5 18H7C8.104 18 9 17.105 9 16V13H15V16C15 17.105 15.896 18 17 18H19C20.104 18 21 17.105 21 16V8C21 6.896 20.104 6 19 6Z" fill="white"/>
<path fill-rule="evenodd" clip-rule="evenodd" d="M22 13.9995H24V9.99951H22V13.9995Z" fill="white"/>
<path fill-rule="evenodd" clip-rule="evenodd" d="M0 13.9995H2V9.99951H0V13.9995Z" fill="white"/>
</svg>
