<svg width="369" height="61" viewBox="0 0 369 61" fill="none" xmlns="http://www.w3.org/2000/svg">
<path fill-rule="evenodd" clip-rule="evenodd" d="M0.170166 17.8308C5.03312 20.5182 9.38418 22.0539 12.4555 22.9497C18.1716 24.6134 22.0534 25.6798 26.6178 24.3148C29.5185 23.4616 31.3954 21.9686 33.6563 20.2196C37.1968 17.4469 39.2017 14.7595 42.1878 10.6644C44.1074 8.0196 46.4962 4.47903 48.9277 0C47.6479 3.114 43.8088 12.0721 39.3297 19.6224C39.3297 19.6224 37.4954 22.7364 34.0829 26.3623C31.3954 29.1777 29.8598 30.0735 28.2388 30.4574C26.7031 30.7987 25.3807 30.6281 23.8451 30.2868C18.129 29.0497 13.8206 26.7036 13.1807 26.3623C9.72544 24.4001 5.20375 21.67 0.170166 17.8308Z" fill="#0084AE"/>
<path fill-rule="evenodd" clip-rule="evenodd" d="M0 43.8517C4.69232 40.6097 8.8301 38.0503 12.0721 36.088C15.6553 33.9552 17.9588 32.7181 21.1154 31.9503C23.9735 31.2677 26.0637 30.7132 28.5805 31.3531C32.5476 32.3342 34.8085 35.5761 38.733 41.1643C39.3728 42.1027 40.7805 44.1503 42.7854 47.7762C44.5344 50.9328 46.7526 55.3692 48.9708 61C45.0463 54.5161 41.1645 49.6531 38.2211 46.2832C31.4812 38.6475 28.4952 37.5384 26.8742 37.1118C23.2483 36.1307 20.2623 36.8559 14.5035 38.3062C10.7497 39.2447 5.7161 40.8657 0 43.8517Z" fill="white"/>
<path fill-rule="evenodd" clip-rule="evenodd" d="M24.5706 19.1107C27.8924 19.1107 30.5853 16.4178 30.5853 13.096C30.5853 9.77417 27.8924 7.0813 24.5706 7.0813C21.2488 7.0813 18.5559 9.77417 18.5559 13.096C18.5559 16.4178 21.2488 19.1107 24.5706 19.1107Z" fill="white"/>
<path fill-rule="evenodd" clip-rule="evenodd" d="M59.6779 35.7047H54.3457C54.1751 35.7047 54.0471 35.7047 53.8765 35.7047C53.8765 35.5767 53.8765 35.4061 53.8765 35.2781V8.01999C53.8765 7.97733 53.8765 7.97733 53.8765 7.93467L54.0044 7.33747C54.2604 6.31369 54.9856 5.46054 55.924 5.03396C57.801 4.22347 59.9338 4.22347 61.8534 4.99131C62.6212 5.33257 63.0052 5.8018 63.6024 6.74026L64.8821 9.89691L72.2192 28.8368L72.6884 29.9033C72.859 30.3298 73.4562 30.3298 73.6269 29.9033L74.0961 28.7942L82.5423 7.5081L82.7129 7.08152C83.5661 4.99131 85.4857 4.47942 87.3626 4.43676C89.5808 4.3941 91.7563 5.16194 92.4388 7.76404V35.7047H86.6374L86.808 11.3473V11.134C86.7654 10.6221 86.0829 10.4515 85.8269 10.9207L85.6989 11.1766L77.2954 33.1026L76.7835 33.9557C76.5276 34.3823 76.4423 34.7662 76.101 35.0648C74.6507 36.3019 72.2618 36.4725 70.6835 35.3208C70.2996 35.0222 69.7024 34.5529 69.4464 34.1264L69.0625 32.9319L60.6163 11.0913L60.531 10.9207C60.2751 10.4941 59.6779 10.5794 59.7205 11.0913V11.5179L59.6779 35.7047Z" fill="white"/>
<path fill-rule="evenodd" clip-rule="evenodd" d="M96.8752 35.7473H102.079V12.2856H96.8325C96.8752 35.6619 96.8752 35.7473 96.8752 35.7473Z" fill="white"/>
<rect x="96.8325" y="4.69214" width="5.24687" height="4.18043" fill="white"/>
<path fill-rule="evenodd" clip-rule="evenodd" d="M110.824 21.1157L110.867 20.4332C111.038 19.4094 111.208 18.9829 111.507 18.471C111.72 18.1297 112.019 17.7031 112.275 17.4899C113.213 16.722 114.365 16.2528 116.754 16.2954L118.545 16.2528V12.2856H115.09C112.36 12.2856 109.63 12.8402 107.966 14.3332C107.369 14.8451 106.772 15.485 106.431 16.2528C105.833 17.4899 105.62 19.0255 105.577 20.6892V35.7473H110.782" fill="white"/>
<rect x="120.251" y="21.457" width="15.8686" height="4.64966" fill="white"/>
<path fill-rule="evenodd" clip-rule="evenodd" d="M139.575 35.6615V31.0118H157.449L157.705 30.9691C159.155 30.5426 159.582 29.3908 159.667 28.1537C159.71 27.5139 159.752 26.874 159.454 26.2768C159.112 25.5943 158.728 24.9118 157.833 24.6132L147.765 21.4565L143.969 20.1341L142.476 19.4943C141.367 18.5985 140.812 18.0866 140.13 16.9775C139.49 15.8684 139.575 14.8446 139.277 13.1383V11.8159C138.935 9.76838 139.831 7.97676 141.111 6.61172C142.561 5.0334 144.31 4.77745 146.912 4.69214H146.955H164.146V9.46978L147.723 9.42712H147.04C146.784 9.55509 146.315 9.64041 146.144 9.81104C145.462 10.3656 145.206 11.2614 145.121 12.1572C145.035 13.1383 145.206 14.1621 145.889 14.8873C146.102 15.1006 146.4 15.1859 146.656 15.3565L147.552 15.8257L160.008 19.7502L162.141 20.646C166.066 22.395 166.833 28.7936 164.743 32.6754C163.933 34.2111 162.312 35.4055 160.435 35.6188H159.155H139.575V35.6615Z" fill="white"/>
<path fill-rule="evenodd" clip-rule="evenodd" d="M168.796 16.4231L168.753 43.2547H173.957V35.6616H181.721L182.574 35.5763C189.698 35.0644 190.594 28.7085 190.508 23.9735C190.423 19.1105 189.996 14.2049 184.323 12.5839L182.787 12.2427L182.574 16.7644C183.384 17.063 183.811 17.7455 184.195 18.2147C185.389 19.6651 185.176 21.6273 185.219 23.7602C185.261 26.7036 185.219 30.628 181.294 31.6518L179.417 31.7371L173.957 31.6945V24.1015V22.9497L168.796 16.4231Z" fill="white"/>
<path fill-rule="evenodd" clip-rule="evenodd" d="M173.957 18.8547V24.6135H168.753V15.7407C168.71 15.5274 168.796 14.9302 169.009 14.461C169.179 14.0344 169.435 13.6932 169.521 13.6078C169.734 13.3946 170.075 13.0533 170.416 12.84C170.715 12.6694 171.014 12.5841 171.27 12.5414C172.336 12.3281 173.744 12.3281 174.981 12.3281C176.73 12.3281 178.18 12.3281 178.18 12.3281L183.043 12.3708V17.0631L182.915 16.9778C182.19 16.6792 182.062 16.5086 181.465 16.3806C180.868 16.2526 180.398 16.3379 179.673 16.2953H179.503L177.54 16.2526H175.194C173.829 16.2953 173.914 17.1484 173.914 18.7267L173.957 18.8547Z" fill="white"/>
<path fill-rule="evenodd" clip-rule="evenodd" d="M183.342 49.4828V57.9716H185.133V55.5828H187.821L188.119 55.5401C190.594 55.3695 190.892 53.3646 190.85 51.8716C190.807 50.3359 190.679 48.7576 188.717 48.2884L188.205 48.1604L188.119 49.5681C188.418 49.6534 188.546 49.8667 188.674 50.0373C189.101 50.5066 189.015 51.1038 189.015 51.7863C189.015 52.7247 189.015 53.9618 187.65 54.3031L187.01 54.3457H185.133V51.9569V51.6157L183.342 49.4828Z" fill="#0084AE"/>
<path fill-rule="evenodd" clip-rule="evenodd" d="M185.133 50.2506V52.0849H183.342V49.2695C183.342 49.1842 183.342 49.0135 183.427 48.8429C183.47 48.7149 183.555 48.587 183.598 48.587C183.683 48.5017 183.811 48.4163 183.896 48.331C183.982 48.2884 184.11 48.2457 184.195 48.2457C184.579 48.1604 185.048 48.1604 185.475 48.1604C186.072 48.1604 186.584 48.1604 186.584 48.1604H188.247V49.6534L188.205 49.6108C187.949 49.5254 187.906 49.4828 187.693 49.4401C187.48 49.3975 187.309 49.4401 187.096 49.3975H187.053H186.37H185.56C185.091 49.4401 185.133 49.6961 185.133 50.2506Z" fill="#0084AE"/>
<path fill-rule="evenodd" clip-rule="evenodd" d="M275.269 49.4828V57.9716H277.06V55.5828H279.748L280.046 55.5401C282.521 55.3695 282.819 53.3646 282.777 51.8716C282.734 50.3359 282.606 48.7576 280.644 48.2884L280.132 48.1604L280.046 49.5681C280.345 49.6534 280.473 49.8667 280.601 50.0373C281.028 50.5066 280.942 51.1038 280.942 51.7863C280.942 52.7247 280.942 53.9618 279.577 54.3031L278.937 54.3457H277.06V51.9569V51.6157L275.269 49.4828Z" fill="#0084AE"/>
<path fill-rule="evenodd" clip-rule="evenodd" d="M277.06 50.2506V52.0849H275.269V49.2695C275.269 49.1842 275.269 49.0135 275.354 48.8429C275.397 48.7149 275.482 48.587 275.525 48.587C275.61 48.5017 275.738 48.4163 275.823 48.331C275.909 48.2884 276.037 48.2457 276.122 48.2457C276.506 48.1604 276.975 48.1604 277.402 48.1604C277.999 48.1604 278.511 48.1604 278.511 48.1604H280.174V49.6534L280.132 49.6108C279.876 49.5254 279.833 49.4828 279.62 49.4401C279.407 49.3975 279.236 49.4401 279.023 49.3975H278.98H278.297H277.487C277.018 49.4401 277.06 49.6961 277.06 50.2506Z" fill="#0084AE"/>
<path fill-rule="evenodd" clip-rule="evenodd" d="M82.0303 49.4828V57.9716H83.8645V55.5828H86.552L86.8506 55.5401C89.3247 55.3695 89.6233 53.3646 89.6233 51.8716C89.5806 50.3359 89.4527 48.7576 87.4478 48.2884L86.9359 48.1604L86.8506 49.5681C87.1492 49.6534 87.2771 49.8667 87.4051 50.0373C87.8317 50.5066 87.7464 51.1038 87.7464 51.7863C87.7464 52.7247 87.7464 53.9618 86.3813 54.3031L85.7415 54.3457H83.8645V51.9569V51.6157L82.0303 49.4828Z" fill="#0084AE"/>
<path fill-rule="evenodd" clip-rule="evenodd" d="M83.8221 50.2506V52.0849H81.9878V49.2695C81.9878 49.1842 81.9878 49.0135 82.0731 48.8429C82.1158 48.7149 82.2437 48.587 82.2437 48.587C82.3291 48.5017 82.457 48.4163 82.5423 48.331C82.6277 48.2884 82.7556 48.2457 82.8409 48.2457C83.2249 48.1604 83.6941 48.1604 84.1207 48.1604C84.7179 48.1604 85.2298 48.1604 85.2298 48.1604H86.9361V49.6534L86.8934 49.6108C86.6375 49.5254 86.5948 49.4828 86.3815 49.4401C86.1682 49.3975 85.9976 49.4401 85.7417 49.3975H85.699H85.0165H84.206C83.7794 49.4401 83.8221 49.7387 83.8221 50.2506Z" fill="#0084AE"/>
<path fill-rule="evenodd" clip-rule="evenodd" d="M315.239 47.3496C315.239 50.1223 315.239 52.8951 315.239 55.6678C315.921 55.6678 316.604 55.6251 317.244 55.6251C317.244 54.4734 317.244 53.3643 317.244 52.2125C318.353 52.2125 319.505 52.2552 320.656 52.2125C321.126 52.2125 321.595 52.2125 322.021 52.2125C322.235 52.2125 323.514 52.2552 324.282 51.3167C324.751 50.7195 324.794 50.0797 324.794 49.3545C324.837 48.5867 324.879 47.2643 324.026 46.5391C323.472 46.0699 322.832 45.9846 322.491 45.9419C321.851 45.9419 321.211 45.9419 320.571 45.9419C320.4 45.9419 320.23 45.9419 320.059 45.9419C320.102 46.4111 320.102 46.923 320.144 47.3922C320.486 47.3922 320.87 47.3922 321.211 47.3922C321.339 47.3922 322.107 47.3496 322.491 47.8615C322.661 48.0748 322.661 48.416 322.661 49.0559C322.661 49.9517 322.448 50.2503 322.32 50.3783C322.277 50.4209 322.235 50.4636 322.192 50.5062C321.808 50.8048 321.467 50.7195 320.4 50.7195C320.102 50.7195 320.102 50.7195 319.59 50.7195C319.419 50.7195 319.163 50.7195 318.779 50.7195C318.395 50.7195 317.841 50.7195 317.201 50.6769C317.201 50.3356 317.201 49.9517 317.158 49.6104C317.158 49.4398 317.158 49.3118 317.116 49.1412C316.561 48.544 315.921 47.9468 315.239 47.3496Z" fill="#0084AE"/>
<path fill-rule="evenodd" clip-rule="evenodd" d="M317.243 48.2029C317.243 48.5868 317.243 49.0987 317.286 49.7385C316.604 49.7385 315.921 49.7385 315.281 49.7385V46.9231C315.281 46.7952 315.324 46.5819 315.495 46.4112C315.58 46.2833 315.665 46.1979 315.75 46.1553C315.836 46.1126 315.964 45.9847 316.22 45.8993C316.39 45.8567 316.518 45.8567 316.646 45.8567C316.945 45.8567 317.201 45.8567 317.499 45.8567C317.499 45.8567 318.054 45.8567 318.609 45.8567C319.163 45.8567 319.76 45.8567 320.315 45.8567C320.315 46.3259 320.315 46.7952 320.315 47.2644V47.307C320.187 47.307 320.016 47.307 319.888 47.307C319.803 47.307 319.718 47.307 319.675 47.307C319.547 47.307 319.419 47.307 319.248 47.307C319.206 47.307 319.163 47.307 319.078 47.307C318.95 47.307 318.779 47.307 318.609 47.307C318.523 47.307 318.395 47.307 318.225 47.307C317.841 47.307 317.67 47.307 317.542 47.435C317.243 47.6056 317.243 47.8616 317.243 48.2029Z" fill="#0084AE"/>
<path fill-rule="evenodd" clip-rule="evenodd" d="M226.084 21.0728L226.127 20.3903C226.298 19.3665 226.468 18.9399 226.767 18.428C226.98 18.0867 227.279 17.6602 227.535 17.4469C228.473 16.6791 229.625 16.2098 232.014 16.2525L233.805 16.2098V12.2427H230.308C227.577 12.2427 224.847 12.7972 223.184 14.2902C222.587 14.8021 221.989 15.442 221.648 16.2098C221.051 17.4469 220.838 18.9826 220.795 20.6462V35.7043H225.999" fill="white"/>
<path fill-rule="evenodd" clip-rule="evenodd" d="M204.713 35.9176C203.946 35.9603 202.836 35.9603 201.557 35.7896C200.874 35.7043 200.064 35.5337 199.04 35.2351C197.376 34.7659 196.353 33.9127 195.841 33.4435C194.604 32.2917 194.092 31.012 193.665 29.9029C193.494 29.4763 193.068 28.3246 192.897 26.7889C192.812 26.1064 192.769 25.4239 192.855 23.8029C192.983 21.3714 193.068 20.177 193.281 19.1959C193.622 17.9161 194.177 15.698 196.139 14.077C197.462 13.0105 198.869 12.6693 200.32 12.3707C201.386 12.1147 202.538 12.0721 204.799 11.9868C206.249 11.9441 207.273 11.9441 208.297 12.0294C209.192 12.0721 209.704 12.1147 210.387 12.2854C211.112 12.456 212.349 12.7119 213.671 13.6077C214.866 14.4182 215.548 15.314 215.762 15.6126C215.932 15.8259 216.487 16.6364 216.999 18.1294C217.639 19.9637 217.681 21.4994 217.767 23.0777C217.809 24.4854 217.852 25.8931 217.511 27.7274C217.255 29.0497 216.956 30.4574 215.975 31.9505C215.122 33.2302 214.226 33.9554 213.799 34.254C212.776 34.9791 211.539 35.8749 210.557 35.491C209.491 35.1071 208.851 33.3582 209.192 31.2679C209.619 31.0546 210.685 30.5001 211.496 29.263C212.136 28.2393 212.264 27.2581 212.349 26.2344C212.52 22.9497 212.733 18.8546 210.046 16.935C208.894 16.1245 207.699 16.0819 206.078 15.9966C204.372 15.9112 201.855 15.7833 200.064 17.4896C198.613 18.8973 198.4 20.8169 198.357 21.67C198.4 23.2483 198.4 24.784 198.443 26.3623C198.443 26.7036 198.485 28.5805 199.722 30.0309C200.49 30.9267 201.514 31.3533 201.642 31.3959C201.898 31.4812 202.069 31.5665 202.239 31.6092C203.007 33.0596 203.86 34.5099 204.713 35.9176Z" fill="white"/>
<path fill-rule="evenodd" clip-rule="evenodd" d="M209.448 31.1829C208.595 31.5241 207.358 31.908 205.78 31.9934C204.116 32.0787 202.836 31.7801 202.367 31.6521C201.983 31.5668 201.642 31.4388 201.429 31.3535C202.282 32.8892 203.135 34.4248 203.988 35.9605C205.14 35.9605 206.334 35.9605 207.614 35.8752C208.936 35.7899 210.216 35.7046 211.368 35.5766C210.728 34.1262 210.088 32.6759 209.448 31.1829Z" fill="white"/>
<path fill-rule="evenodd" clip-rule="evenodd" d="M318.822 35.9601C318.054 36.0027 316.945 36.0027 315.665 35.8321C314.983 35.7468 314.172 35.5762 313.149 35.2776C311.485 34.8083 310.461 33.9552 309.949 33.4859C308.712 32.3342 308.2 31.0545 307.774 29.9454C307.603 29.5188 307.177 28.3671 307.006 26.8314C306.921 26.1489 306.878 25.4663 306.963 23.8454C307.091 21.4139 307.177 20.2195 307.39 19.2384C307.731 17.9586 308.286 15.7404 310.248 14.1195C311.57 13.053 312.978 12.7118 314.428 12.4132C315.495 12.1572 316.646 12.1146 318.907 12.0292C320.358 11.9866 321.381 11.9866 322.405 12.0719C323.301 12.1146 323.813 12.1572 324.495 12.3278C325.221 12.4985 326.458 12.7544 327.78 13.6502C328.975 14.4607 329.657 15.3565 329.87 15.6551C330.041 15.8684 330.595 16.6789 331.107 18.1719C331.747 20.0062 331.79 21.5419 331.875 23.1202C331.918 24.5279 331.961 25.9356 331.619 27.7698C331.363 29.0922 331.065 30.4999 330.084 31.9929C329.23 33.2727 328.335 33.9978 327.908 34.2964C326.884 35.0216 325.647 35.9174 324.666 35.5335C323.6 35.1496 322.96 33.4006 323.301 31.3104C323.728 31.0971 324.794 30.5426 325.605 29.3055C326.244 28.2817 326.372 27.3006 326.458 26.2768C326.628 22.9922 326.842 18.8971 324.154 16.9775C323.002 16.167 321.808 16.1244 320.187 16.039C318.481 15.9537 315.964 15.8258 314.172 17.5321C312.722 18.9398 312.509 20.8593 312.466 21.7125C312.509 23.2908 312.509 24.8265 312.551 26.4048C312.551 26.7461 312.594 28.623 313.831 30.0734C314.599 30.9692 315.623 31.3957 315.751 31.4384C316.007 31.5237 316.177 31.609 316.348 31.6517C317.116 33.102 317.969 34.5097 318.822 35.9601Z" fill="white"/>
<path fill-rule="evenodd" clip-rule="evenodd" d="M323.557 31.2253C322.704 31.5666 321.467 31.9505 319.888 32.0358C318.225 32.1211 316.945 31.8225 316.476 31.6946C316.092 31.6093 315.751 31.4813 315.537 31.396C316.391 32.9316 317.244 34.4673 318.097 36.003C319.249 36.003 320.443 36.003 321.723 35.9177C323.045 35.8323 324.325 35.747 325.477 35.6191C324.837 34.126 324.197 32.6757 323.557 31.2253Z" fill="white"/>
<path fill-rule="evenodd" clip-rule="evenodd" d="M329.614 55.7105C329.358 55.7105 328.974 55.7105 328.548 55.6679C328.292 55.6252 328.036 55.5826 327.695 55.4972C327.14 55.3266 326.756 55.0707 326.586 54.9427C326.159 54.5588 325.988 54.1749 325.86 53.8336C325.818 53.7056 325.647 53.3217 325.605 52.8525C325.562 52.6392 325.562 52.4259 325.605 51.914C325.647 51.1462 325.69 50.7623 325.775 50.4637C325.903 50.0797 326.074 49.3546 326.756 48.8427C327.225 48.5014 327.695 48.4161 328.207 48.2881C328.591 48.2028 328.974 48.2028 329.742 48.1602C330.254 48.1602 330.595 48.1602 330.937 48.1602C331.235 48.1602 331.406 48.2028 331.662 48.2455C331.918 48.2881 332.344 48.3734 332.814 48.672C333.24 48.928 333.453 49.2266 333.539 49.3119C333.581 49.3972 333.795 49.6532 333.965 50.1224C334.179 50.7196 334.221 51.1888 334.221 51.7007C334.221 52.1273 334.264 52.5965 334.136 53.1937C334.051 53.6203 333.965 54.0469 333.624 54.5161C333.326 54.9 333.027 55.156 332.899 55.2413C332.558 55.4546 332.131 55.7532 331.79 55.6252C331.406 55.4972 331.193 54.9427 331.321 54.3028C331.491 54.2602 331.832 54.0469 332.131 53.663C332.344 53.3644 332.387 53.0231 332.43 52.7245C332.472 51.7007 332.558 50.3783 331.619 49.7811C331.235 49.5252 330.809 49.5252 330.254 49.4825C329.657 49.4399 328.804 49.3972 328.207 49.9518C327.695 50.3783 327.609 51.0182 327.609 51.2742C327.609 51.786 327.609 52.2553 327.652 52.7672C327.652 52.8525 327.652 53.4497 328.079 53.9189C328.335 54.2175 328.718 54.3455 328.718 54.3455C328.804 54.3881 328.889 54.3881 328.932 54.4308C329.06 54.8147 329.316 55.284 329.614 55.7105Z" fill="#0084AE"/>
<path fill-rule="evenodd" clip-rule="evenodd" d="M331.235 54.2178C330.937 54.3031 330.51 54.4311 329.998 54.4737C329.444 54.5164 328.975 54.3884 328.804 54.3457C328.676 54.3031 328.548 54.2604 328.463 54.2604C328.761 54.7297 329.06 55.2416 329.358 55.7108C329.742 55.7108 330.169 55.7108 330.596 55.6681C331.065 55.6681 331.491 55.6255 331.875 55.5828C331.705 55.1562 331.449 54.687 331.235 54.2178Z" fill="#0084AE"/>
<path fill-rule="evenodd" clip-rule="evenodd" d="M287.767 55.7105C287.511 55.7105 287.128 55.7105 286.701 55.6679C286.445 55.6252 286.189 55.5826 285.848 55.4972C285.293 55.3266 284.909 55.0707 284.739 54.9427C284.312 54.5588 284.141 54.1749 284.014 53.8336C283.971 53.7056 283.8 53.3217 283.758 52.8525C283.715 52.6392 283.715 52.4259 283.758 51.914C283.8 51.1462 283.843 50.7623 283.928 50.4637C284.056 50.0797 284.227 49.3546 284.909 48.8427C285.379 48.5014 285.848 48.4161 286.36 48.2881C286.744 48.2028 287.128 48.2028 287.895 48.1602C288.407 48.1602 288.749 48.1602 289.09 48.1602C289.388 48.1602 289.559 48.2028 289.815 48.2455C290.071 48.2881 290.497 48.3734 290.967 48.672C291.393 48.928 291.607 49.2266 291.692 49.3119C291.735 49.3972 291.948 49.6532 292.118 50.1224C292.332 50.7196 292.374 51.1888 292.374 51.6581C292.374 52.0846 292.417 52.5539 292.289 53.1511C292.204 53.5777 292.118 54.0042 291.777 54.4735C291.479 54.8574 291.18 55.1133 291.052 55.1986C290.711 55.4119 290.284 55.7105 289.943 55.5826C289.559 55.4546 289.346 54.9 289.474 54.2602C289.644 54.2175 289.986 54.0042 290.284 53.6203C290.497 53.3217 290.54 52.9805 290.583 52.6818C290.625 51.6581 290.711 50.3357 289.772 49.7385C289.388 49.4825 288.962 49.4825 288.407 49.4399C287.81 49.3972 286.957 49.3546 286.36 49.9091C285.848 50.3357 285.762 50.9755 285.762 51.2315C285.762 51.7434 285.762 52.2126 285.805 52.7245C285.805 52.8098 285.805 53.407 286.232 53.8763C286.488 54.1749 286.872 54.3028 286.872 54.3028C286.957 54.3455 287.042 54.3455 287.085 54.3881C287.17 54.8147 287.469 55.284 287.767 55.7105Z" fill="#0084AE"/>
<path fill-rule="evenodd" clip-rule="evenodd" d="M289.388 54.2178C289.09 54.3031 288.663 54.4311 288.151 54.4737C287.597 54.5164 287.127 54.3884 286.957 54.3457C286.829 54.3031 286.701 54.2604 286.615 54.2604C286.914 54.7297 287.213 55.2416 287.511 55.7108C287.895 55.7108 288.322 55.7108 288.748 55.6681C289.218 55.6681 289.644 55.6255 290.028 55.5828C289.815 55.1562 289.602 54.687 289.388 54.2178Z" fill="#0084AE"/>
<path fill-rule="evenodd" clip-rule="evenodd" d="M269.808 55.7105C269.552 55.7105 269.169 55.7105 268.742 55.6679C268.486 55.6252 268.23 55.5826 267.889 55.4972C267.334 55.3266 266.95 55.0707 266.78 54.9427C266.353 54.5588 266.183 54.1749 266.055 53.8336C266.012 53.7056 265.841 53.3217 265.799 52.8525C265.756 52.6392 265.756 52.4259 265.799 51.914C265.841 51.1462 265.884 50.7623 265.969 50.4637C266.097 50.0797 266.268 49.3546 266.95 48.8427C267.42 48.5014 267.889 48.4161 268.401 48.2881C268.785 48.2028 269.169 48.2028 269.936 48.1602C270.448 48.1602 270.79 48.1602 271.131 48.1602C271.429 48.1602 271.6 48.2028 271.856 48.2455C272.112 48.2881 272.538 48.3734 273.008 48.672C273.434 48.928 273.648 49.2266 273.733 49.3119C273.776 49.3972 273.989 49.6532 274.159 50.1224C274.373 50.7196 274.415 51.1888 274.415 51.6581C274.415 52.0846 274.458 52.5539 274.33 53.1511C274.245 53.5777 274.159 54.0042 273.818 54.4735C273.52 54.8574 273.221 55.1133 273.093 55.1986C272.752 55.4119 272.325 55.7105 271.984 55.5826C271.6 55.4546 271.387 54.9 271.515 54.2602C271.685 54.2175 272.027 54.0042 272.325 53.6203C272.538 53.3217 272.581 52.9805 272.624 52.6818C272.666 51.6581 272.752 50.3357 271.813 49.7385C271.429 49.4825 271.003 49.4825 270.448 49.4399C269.851 49.3972 268.998 49.3546 268.401 49.9091C267.889 50.3357 267.803 50.9755 267.803 51.2315C267.803 51.7434 267.803 52.2126 267.846 52.7245C267.846 52.8098 267.846 53.407 268.273 53.8763C268.529 54.1749 268.913 54.3028 268.913 54.3028C268.998 54.3455 269.083 54.3455 269.126 54.3881C269.254 54.8147 269.51 55.284 269.808 55.7105Z" fill="#0084AE"/>
<path fill-rule="evenodd" clip-rule="evenodd" d="M271.429 54.2178C271.131 54.3031 270.704 54.4311 270.192 54.4737C269.638 54.5164 269.169 54.3884 268.998 54.3457C268.87 54.3031 268.742 54.2604 268.657 54.2604C268.955 54.7297 269.254 55.2416 269.553 55.7108C269.936 55.7108 270.363 55.7108 270.79 55.6681C271.259 55.6681 271.685 55.6255 272.069 55.5828C271.899 55.1562 271.643 54.687 271.429 54.2178Z" fill="#0084AE"/>
<path fill-rule="evenodd" clip-rule="evenodd" d="M219.899 55.7105C219.643 55.7105 219.259 55.7105 218.833 55.6679C218.577 55.6252 218.321 55.5826 217.98 55.4972C217.425 55.3266 217.041 55.0707 216.871 54.9427C216.444 54.5588 216.273 54.1749 216.145 53.8336C216.103 53.7056 215.932 53.3217 215.889 52.8525C215.847 52.6392 215.847 52.4259 215.889 51.914C215.932 51.1462 215.975 50.7623 216.06 50.4637C216.188 50.0797 216.359 49.3546 217.041 48.8427C217.51 48.5014 217.98 48.4161 218.492 48.2881C218.875 48.2028 219.259 48.2028 220.027 48.1602C220.539 48.1602 220.88 48.1602 221.222 48.1602C221.52 48.1602 221.691 48.2028 221.947 48.2455C222.203 48.2881 222.629 48.3734 223.099 48.672C223.525 48.928 223.738 49.2266 223.824 49.3119C223.866 49.3972 224.08 49.6532 224.25 50.1224C224.464 50.7196 224.506 51.1888 224.506 51.6581C224.506 52.0846 224.549 52.5539 224.421 53.1511C224.336 53.5777 224.25 54.0042 223.909 54.4735C223.61 54.8574 223.312 55.1133 223.184 55.1986C222.843 55.4119 222.416 55.7105 222.075 55.5826C221.691 55.4546 221.478 54.9 221.606 54.2602C221.776 54.2175 222.117 54.0042 222.416 53.6203C222.629 53.3217 222.672 52.9805 222.715 52.6818C222.757 51.6581 222.843 50.3357 221.904 49.7385C221.52 49.4825 221.094 49.4825 220.539 49.4399C219.942 49.3972 219.089 49.3546 218.492 49.9091C217.98 50.3357 217.894 50.9755 217.894 51.2315C217.894 51.7434 217.894 52.2126 217.937 52.7245C217.937 52.8098 217.937 53.407 218.364 53.8763C218.619 54.1749 219.003 54.3028 219.003 54.3028C219.089 54.3455 219.174 54.3455 219.217 54.3881C219.345 54.8147 219.601 55.284 219.899 55.7105Z" fill="#0084AE"/>
<path fill-rule="evenodd" clip-rule="evenodd" d="M221.52 54.2178C221.222 54.3031 220.795 54.4311 220.283 54.4737C219.729 54.5164 219.259 54.3884 219.089 54.3457C218.961 54.3031 218.833 54.2604 218.748 54.2604C219.046 54.7297 219.345 55.2416 219.643 55.7108C220.027 55.7108 220.454 55.7108 220.88 55.6681C221.35 55.6681 221.776 55.6255 222.16 55.5828C221.99 55.1562 221.734 54.687 221.52 54.2178Z" fill="#0084AE"/>
<path fill-rule="evenodd" clip-rule="evenodd" d="M160.776 55.7105C160.52 55.7105 160.136 55.7105 159.709 55.6679C159.454 55.6252 159.198 55.5826 158.856 55.4972C158.302 55.3266 157.918 55.0707 157.747 54.9427C157.321 54.5588 157.15 54.1749 157.022 53.8336C156.979 53.7056 156.809 53.3217 156.766 52.8525C156.723 52.6392 156.723 52.4259 156.766 51.914C156.809 51.1462 156.851 50.7623 156.937 50.4637C157.065 50.0797 157.235 49.3546 157.918 48.8427C158.387 48.5014 158.856 48.4161 159.368 48.2881C159.752 48.2028 160.136 48.2028 160.904 48.1602C161.416 48.1602 161.757 48.1602 162.098 48.1602C162.397 48.1602 162.568 48.2028 162.823 48.2455C163.079 48.2881 163.506 48.3734 163.975 48.672C164.402 48.928 164.615 49.2266 164.7 49.3119C164.743 49.3972 164.956 49.6532 165.127 50.1224C165.34 50.7196 165.383 51.1888 165.383 51.6581C165.383 52.0846 165.426 52.5539 165.298 53.1511C165.212 53.5777 165.127 54.0042 164.786 54.4735C164.487 54.8574 164.189 55.1133 164.061 55.1986C163.719 55.4119 163.293 55.7105 162.951 55.5826C162.568 55.4546 162.354 54.9 162.482 54.2602C162.653 54.2175 162.994 54.0042 163.293 53.6203C163.506 53.3217 163.549 52.9805 163.591 52.6818C163.634 51.6581 163.719 50.3357 162.781 49.7385C162.397 49.4825 161.97 49.4825 161.416 49.4399C160.819 49.3972 159.965 49.3546 159.368 49.9091C158.856 50.3357 158.771 50.9755 158.771 51.2315C158.771 51.7434 158.771 52.2126 158.814 52.7245C158.814 52.8098 158.814 53.407 159.24 53.8763C159.496 54.1749 159.88 54.3028 159.88 54.3028C159.965 54.3455 160.051 54.3455 160.093 54.3881C160.221 54.8147 160.52 55.284 160.776 55.7105Z" fill="#0084AE"/>
<path fill-rule="evenodd" clip-rule="evenodd" d="M162.397 54.2178C162.098 54.3031 161.672 54.4311 161.16 54.4737C160.605 54.5164 160.136 54.3884 159.966 54.3457C159.838 54.3031 159.71 54.2604 159.624 54.2604C159.923 54.7297 160.221 55.2416 160.52 55.7108C160.904 55.7108 161.331 55.7108 161.757 55.6681C162.226 55.6681 162.653 55.6255 163.037 55.5828C162.866 55.1562 162.653 54.687 162.397 54.2178Z" fill="#0084AE"/>
<path fill-rule="evenodd" clip-rule="evenodd" d="M76.4849 55.7105C76.229 55.7105 75.845 55.7105 75.4185 55.6679C75.1625 55.6252 74.9066 55.5826 74.5653 55.4972C74.0108 55.3266 73.6269 55.0707 73.4562 54.9427C73.0297 54.5588 72.859 54.1749 72.7311 53.8336C72.6884 53.7056 72.5178 53.3217 72.4751 52.8525C72.4325 52.6392 72.4325 52.4259 72.4751 51.914C72.5178 51.1462 72.5604 50.7623 72.6457 50.4637C72.7737 50.0797 72.9443 49.3546 73.6269 48.8427C74.0961 48.5014 74.5653 48.4161 75.0772 48.2881C75.4611 48.2028 75.845 48.2028 76.6129 48.1602C77.1248 48.1602 77.466 48.1602 77.8073 48.1602C78.1059 48.1602 78.2765 48.2028 78.5325 48.2455C78.7884 48.2881 79.215 48.3734 79.6842 48.672C80.1108 48.928 80.3241 49.2266 80.4094 49.3119C80.4521 49.3972 80.6653 49.6532 80.836 50.1224C81.0493 50.7196 81.0919 51.1888 81.0919 51.6581C81.0919 52.0846 81.1346 52.5539 81.0066 53.1511C80.9213 53.5777 80.836 54.0042 80.4947 54.4735C80.1961 54.8574 79.8975 55.1133 79.7695 55.1986C79.4283 55.4119 79.0017 55.7105 78.6604 55.5826C78.2765 55.4546 78.0632 54.9 78.1912 54.2602C78.3618 54.2175 78.7031 54.0042 79.0017 53.6203C79.215 53.3217 79.2576 52.9805 79.3003 52.6818C79.343 51.6581 79.4283 50.3357 78.4898 49.7385C78.1059 49.4825 77.6793 49.4825 77.1248 49.4399C76.5276 49.3972 75.6744 49.3546 75.0772 49.9091C74.5653 50.3357 74.48 50.9755 74.48 51.2315C74.48 51.7434 74.48 52.2126 74.5227 52.7245C74.5227 52.8098 74.5227 53.407 74.9492 53.8763C75.2052 54.1749 75.5891 54.3028 75.5891 54.3028C75.6744 54.3455 75.7597 54.3455 75.8024 54.3881C75.8877 54.8147 76.1863 55.284 76.4849 55.7105Z" fill="#0084AE"/>
<path fill-rule="evenodd" clip-rule="evenodd" d="M78.1057 54.2178C77.8071 54.3031 77.3806 54.4311 76.8687 54.4737C76.3141 54.5164 75.8449 54.3884 75.6743 54.3457C75.5463 54.3031 75.4183 54.2604 75.333 54.2604C75.6316 54.7297 75.9302 55.2416 76.2288 55.7108C76.6127 55.7108 77.0393 55.7108 77.4659 55.6681C77.9351 55.6681 78.3617 55.6255 78.7456 55.5828C78.5323 55.1562 78.319 54.687 78.1057 54.2178Z" fill="#0084AE"/>
<path fill-rule="evenodd" clip-rule="evenodd" d="M249.674 35.6615H244.683C241.228 35.6615 238.199 33.0594 237.901 29.6041L237.773 25.8929L237.815 16.295H234.573V12.3278H237.815V4.69214H243.02V12.2425H249.546V16.2097L242.892 16.2523L242.977 27.2579V27.8125C242.977 29.9454 244.683 31.6943 246.816 31.6943H247.115H249.717V35.7041H249.674V35.6615Z" fill="white"/>
<rect x="276.847" y="29.9883" width="5.46016" height="5.67344" fill="white"/>
<path fill-rule="evenodd" clip-rule="evenodd" d="M267.249 21.0731V35.7473L269.467 35.7046C271.046 35.6619 272.325 34.4675 272.411 32.8892L272.496 31.4389V18.8122V18.3003C272.496 14.9731 269.809 12.2856 266.481 12.2856H264.434H252.575V16.2528H264.007H264.604C266.097 16.2954 267.249 17.5325 267.249 19.0255V21.0731Z" fill="white"/>
<path fill-rule="evenodd" clip-rule="evenodd" d="M268.486 21.158H256.713H256.414C253.386 21.158 250.911 23.5894 250.869 26.6181L250.826 28.5804L250.911 30.2013V30.5426C250.997 31.1398 251.125 31.5237 251.253 31.993C251.594 33.102 252.149 34.1258 253.13 34.7657C254.111 35.4056 255.476 35.6615 256.713 35.6615L259.23 35.7468L268.657 35.6615V30.5426H267.207V30.7985C267.207 31.3104 266.78 31.737 266.268 31.737L264.988 31.6944H258.249C257.097 31.6944 256.244 30.7132 256.244 29.5615L256.158 28.495L256.244 27.6419C256.244 26.7887 256.5 25.9356 257.139 25.509C257.566 25.2104 258.249 25.1678 258.803 25.1678H261.363L267.463 25.1251L268.486 21.158Z" fill="white"/>
<path fill-rule="evenodd" clip-rule="evenodd" d="M307.646 50.9754V55.6677H308.413C308.968 55.6677 309.395 55.2838 309.437 54.7719L309.48 54.3027V50.2929V50.1222C309.48 49.0558 308.541 48.2026 307.39 48.2026H306.707H302.612V49.4824H306.537H306.75C307.262 49.4824 307.646 49.9089 307.646 50.3782V50.9754Z" fill="#0084AE"/>
<path fill-rule="evenodd" clip-rule="evenodd" d="M308.072 51.0183H304.02H303.934C302.911 51.0183 302.058 51.7861 302.015 52.7673V53.4071L302.058 53.919V54.047C302.1 54.2176 302.143 54.3456 302.186 54.5162C302.313 54.8575 302.484 55.1987 302.825 55.412C303.167 55.6253 303.636 55.7106 304.062 55.7106L304.916 55.7533L308.158 55.7106V54.0896H307.646V54.175C307.646 54.3456 307.518 54.4736 307.304 54.4736H306.878H304.574C304.19 54.4736 303.892 54.175 303.892 53.791L303.849 53.4498L303.892 53.1938C303.892 52.9379 303.977 52.6393 304.19 52.5113C304.318 52.426 304.574 52.3833 304.788 52.426H305.683H307.774L308.072 51.0183Z" fill="#0084AE"/>
<path fill-rule="evenodd" clip-rule="evenodd" d="M180.313 51.0186V55.7109H181.081C181.636 55.7109 182.062 55.327 182.105 54.8151L182.148 54.3459V50.3361V50.1654C182.148 49.099 181.209 48.2458 180.057 48.2458H179.375H175.237V49.5256H179.162H179.375C179.887 49.5256 180.271 49.9521 180.271 50.4214L180.313 51.0186Z" fill="#0084AE"/>
<path fill-rule="evenodd" clip-rule="evenodd" d="M180.74 51.061H176.687H176.602C175.578 51.061 174.725 51.8289 174.682 52.81V53.4499L174.725 53.9617V54.0897C174.768 54.2603 174.81 54.3883 174.853 54.5589C174.981 54.9002 175.152 55.2415 175.493 55.4548C175.834 55.668 176.303 55.7534 176.73 55.7534L177.583 55.796L180.825 55.7534V54.1324H180.313V54.2177C180.313 54.3883 180.185 54.5163 179.972 54.5163H179.545H177.242C176.858 54.5163 176.559 54.2177 176.559 53.8338L176.517 53.4925L176.559 53.2366C176.559 52.9806 176.645 52.682 176.858 52.554C176.986 52.4687 177.242 52.4261 177.455 52.4687H178.351H180.441L180.74 51.061Z" fill="#0084AE"/>
<path fill-rule="evenodd" clip-rule="evenodd" d="M306.536 35.7046L294.72 35.7899C290.327 35.8326 286.658 32.42 286.317 28.0263L286.231 26.9598V21.329V20.8598C286.359 16.1675 290.156 12.371 294.848 12.2856H295.403H305.939L305.982 16.2528L297.066 16.2954C293.952 16.2954 291.436 18.8549 291.478 21.9262L291.521 26.2773L291.82 27.9409C292.161 30.0738 293.995 31.6521 296.171 31.6521L306.536 31.7374V35.7046Z" fill="white"/>
<path fill-rule="evenodd" clip-rule="evenodd" d="M62.8771 55.6253C61.1282 55.6253 59.3792 55.6253 57.6303 55.5827C55.668 55.5827 54.047 54.175 53.9191 52.3833L53.8764 51.9568C53.8337 51.5729 53.8337 51.1036 53.8337 50.6344C53.8337 50.2931 53.8764 49.9519 53.8764 49.6106C53.8764 49.568 53.8764 49.4826 53.8764 49.44C53.9191 47.5204 55.6254 45.9421 57.7156 45.8994H57.9715H62.6638C62.6638 46.4113 62.6638 46.8805 62.6638 47.3924C61.3841 47.3924 60.147 47.3924 58.8673 47.3924C58.6967 47.3924 57.289 47.3071 56.4785 48.3309C56.2226 48.6721 56.0946 49.0134 56.0093 49.312C55.9666 50.0798 55.924 50.8477 55.924 51.6155C55.9666 51.8715 55.9666 52.1274 56.0093 52.3833C56.0519 52.554 56.1799 53.1938 56.7771 53.6631C57.417 54.175 58.0995 54.1323 58.2701 54.1323C59.8058 54.1323 61.3415 54.1323 62.8771 54.1323C62.8771 54.6442 62.8771 55.1134 62.8771 55.6253Z" fill="#0084AE"/>
<path fill-rule="evenodd" clip-rule="evenodd" d="M342.028 55.6255H337.975C336.482 55.6255 335.202 54.559 335.074 53.1513L335.032 52.8101V51.0185V50.8905C335.074 49.3975 336.397 48.2031 338.018 48.1604H338.231H341.857V49.4401H338.786C337.719 49.4401 336.866 50.2506 336.866 51.2317V52.6394L336.951 53.194C337.079 53.8765 337.719 54.3884 338.444 54.3884L342.028 54.431V55.6255Z" fill="#0084AE"/>
<path fill-rule="evenodd" clip-rule="evenodd" d="M349.876 55.6255H345.824C344.331 55.6255 343.051 54.559 342.923 53.1513L342.881 52.8101V51.0185V50.8905C342.923 49.3975 344.246 48.2031 345.867 48.1604H346.08H349.706V49.4401H346.634C345.568 49.4401 344.715 50.2506 344.715 51.2317V52.6394L344.8 53.194C344.928 53.8765 345.568 54.3884 346.293 54.3884L349.876 54.431V55.6255Z" fill="#0084AE"/>
<path fill-rule="evenodd" clip-rule="evenodd" d="M245.025 55.6677H240.972C239.479 55.6677 238.199 54.6013 238.071 53.1936L238.029 52.8523V51.0607V50.9327C238.071 49.4397 239.394 48.2453 241.015 48.2026H241.228H244.854V49.4824H241.783C240.716 49.4824 239.863 50.2929 239.863 51.274V52.6817L239.948 53.2362C240.076 53.9187 240.716 54.4306 241.441 54.4306L245.025 54.4733V55.6677Z" fill="#0084AE"/>
<path fill-rule="evenodd" clip-rule="evenodd" d="M340.108 35.7048H334.818L334.904 15.6985C334.904 13.7362 336.525 12.2432 338.487 12.2432H359.73C359.73 12.2432 361.181 12.2006 362.204 12.4139C362.887 12.5418 363.612 12.6698 364.252 12.9257C365.105 13.267 365.788 13.7362 366.257 14.1628C367.537 15.3999 368.262 17.2342 368.262 19.1964L368.39 35.7475H363.143V19.6656C363.143 17.8314 361.693 16.3383 359.858 16.2957L355.721 16.2104L354.185 16.253V35.7048H349.023L348.981 16.2104H341.345C341.046 16.2104 340.705 16.2104 340.449 16.381C340.193 16.5943 340.108 17.0635 340.108 17.4474V35.7048Z" fill="white"/>
<path fill-rule="evenodd" clip-rule="evenodd" d="M65.6499 55.6256H63.8157L63.8583 49.3549C63.8583 48.7577 64.3276 48.2885 64.9248 48.2885L69.873 48.2458H70.129C70.8115 48.2458 71.3234 48.6298 71.366 49.4829V55.6256H69.5318V49.8668C69.5318 49.6535 69.3611 49.4829 69.1479 49.4829L66.0339 49.4403C65.8206 49.4403 65.6073 49.6109 65.6073 49.8668L65.6499 55.6256Z" fill="#0084AE"/>
<path fill-rule="evenodd" clip-rule="evenodd" d="M92.9079 55.6256L92.9506 49.5682H89.9219V48.2458H97.8135V49.5682L94.8275 49.6109V55.6256H92.9079Z" fill="#0084AE"/>
<path fill-rule="evenodd" clip-rule="evenodd" d="M151.519 55.5399L151.562 49.4825H148.533V48.1602H156.425V49.5252H153.396L153.439 55.5399H151.519Z" fill="#0084AE"/>
<path fill-rule="evenodd" clip-rule="evenodd" d="M98.4536 48.2453V54.6866C98.4536 55.2838 98.9228 55.753 99.5201 55.753H100.032C100.331 55.6677 100.629 55.4544 100.842 55.1985L104.554 50.2075C104.596 50.1649 104.682 50.1649 104.682 50.2502V55.625H106.388V49.2264C106.388 48.6719 105.919 48.2026 105.364 48.2026H104.852C104.511 48.3306 104.212 48.5439 103.999 48.8425L100.459 53.7055C100.373 53.8334 100.203 53.7481 100.203 53.6201L100.288 48.2453H98.4536Z" fill="#0084AE"/>
<path fill-rule="evenodd" clip-rule="evenodd" d="M350.858 48.2453V54.6866C350.858 55.2838 351.327 55.753 351.924 55.753H352.436C352.735 55.6677 353.033 55.4544 353.247 55.1985L356.958 50.2075C357.001 50.1649 357.086 50.1649 357.086 50.2502V55.625H358.792V49.2264C358.792 48.6719 358.323 48.2026 357.768 48.2026H357.257C356.915 48.3306 356.617 48.5439 356.403 48.8425L352.863 53.7055C352.777 53.8334 352.607 53.7481 352.607 53.6201L352.692 48.2453H350.858Z" fill="#0084AE"/>
<path fill-rule="evenodd" clip-rule="evenodd" d="M360.029 48.2028V54.6441C360.029 55.2413 360.498 55.7105 361.095 55.7105H361.607C361.906 55.6252 362.205 55.4119 362.418 55.156L366.129 50.1651C366.172 50.1224 366.257 50.1224 366.257 50.2077V55.5826H367.963V49.1839C367.963 48.6294 367.494 48.1602 366.94 48.1602H366.428C366.086 48.2881 365.788 48.5014 365.575 48.8L362.034 53.663C361.949 53.7909 361.778 53.7056 361.778 53.5777L361.863 48.2028H360.029Z" fill="#0084AE"/>
<path fill-rule="evenodd" clip-rule="evenodd" d="M107.71 51.8291H113.639C114.365 51.8291 114.962 51.2319 114.962 50.5068V49.8669C114.962 48.9284 114.194 48.2886 113.256 48.2886H108.862C108.222 48.2886 107.625 48.7151 107.625 49.355L107.667 49.9522L109.459 50.5494V49.8242C109.459 49.5683 109.672 49.611 109.971 49.5683H111.507L112.658 49.611C112.957 49.611 113.213 49.8669 113.213 50.2082V50.5921C113.213 50.976 112.914 51.2746 112.53 51.2746H111.464H108.99L107.667 51.3173V51.8718H107.71V51.8291Z" fill="#0084AE"/>
<path fill-rule="evenodd" clip-rule="evenodd" d="M107.71 51.8286H113.725C114.45 51.8286 115.09 52.4685 115.09 53.2363V53.9188C115.09 54.9 114.322 55.5825 113.384 55.5825H108.947C108.307 55.5825 107.71 55.1559 107.71 54.4734L107.753 53.8335L109.587 53.2363V54.0041C109.587 54.2601 109.843 54.2601 110.099 54.2601H111.635L112.786 54.2174C113.128 54.2174 113.384 53.9188 113.341 53.5776V53.1937C113.341 52.8097 113.042 52.4685 112.658 52.4685H111.592H109.118L107.753 52.4258V51.8286H107.71V51.8286Z" fill="#0084AE"/>
<path fill-rule="evenodd" clip-rule="evenodd" d="M124.944 51.1035C126.863 51.1035 128.826 51.1035 130.745 51.1035C130.916 51.1462 131.3 51.1888 131.598 51.4874C131.854 51.7007 131.94 51.914 132.025 52.1273C132.281 52.5965 132.281 53.0658 132.281 53.279V53.9616C132.281 54.9427 131.513 55.6252 130.575 55.6252H126.138C125.797 55.6252 125.37 55.6252 125.072 55.4119C124.816 55.2413 124.73 54.8574 124.73 54.5161V53.8336L126.565 53.1937V54.0469C126.565 54.3028 126.735 54.3881 126.991 54.3881C127.503 54.4308 128.271 54.3455 128.783 54.3881C128.996 54.3881 129.593 54.3881 129.935 54.3455C130.191 54.3028 130.233 54.1749 130.276 54.0895C130.319 54.0469 130.319 54.0042 130.361 53.9616C130.404 53.8336 130.447 53.7056 130.447 53.663C130.489 53.0231 130.404 52.7672 130.361 52.6392C130.361 52.5965 130.319 52.5539 130.319 52.5112C130.191 52.3832 130.02 52.3406 129.935 52.3406C129.508 52.3406 129.124 52.3406 128.698 52.3406C127.887 52.3406 127.077 52.3406 126.266 52.3406C125.84 52.3832 125.37 52.4259 124.944 52.4686C124.901 51.9993 124.901 51.5301 124.944 51.1035Z" fill="#0084AE"/>
<path fill-rule="evenodd" clip-rule="evenodd" d="M109.459 54.2605V50.1227L107.667 49.9094L107.625 54.3458L109.459 54.2605Z" fill="#0084AE"/>
<path fill-rule="evenodd" clip-rule="evenodd" d="M166.492 51.8291H172.421C173.147 51.8291 173.744 51.2319 173.744 50.5068V49.8669C173.744 48.9284 172.976 48.2886 172.038 48.2886H167.644C167.004 48.2886 166.407 48.7151 166.407 49.355L166.449 49.9522L168.241 50.5494V49.8242C168.241 49.5683 168.454 49.611 168.753 49.5683H170.289L171.44 49.611C171.739 49.611 171.995 49.8669 171.995 50.2082V50.5921C171.995 50.976 171.696 51.2746 171.312 51.2746H170.246H167.772L166.449 51.3173V51.8718H166.492V51.8291Z" fill="#0084AE"/>
<path fill-rule="evenodd" clip-rule="evenodd" d="M166.492 51.8286H172.507C173.232 51.8286 173.872 52.4685 173.872 53.2363V53.9188C173.872 54.9 173.104 55.5825 172.166 55.5825H167.729C167.089 55.5825 166.492 55.1559 166.492 54.4734L166.535 53.8335L168.369 53.2363V54.0041C168.369 54.2601 168.625 54.2601 168.881 54.2601H170.417L171.568 54.2174C171.91 54.2174 172.166 53.9188 172.123 53.5776V53.1937C172.123 52.8097 171.824 52.4685 171.44 52.4685H170.374H167.9L166.535 52.4258V51.8286H166.492V51.8286Z" fill="#0084AE"/>
<path fill-rule="evenodd" clip-rule="evenodd" d="M168.241 54.2605L168.284 50.1227L166.45 49.9094V54.3458L168.241 54.2605Z" fill="#0084AE"/>
<path fill-rule="evenodd" clip-rule="evenodd" d="M207.742 51.8716H213.671C214.396 51.8716 214.994 51.2744 214.994 50.5492V49.9094C214.994 48.9709 214.226 48.3311 213.287 48.3311H208.936C208.296 48.3311 207.699 48.7576 207.699 49.3975L207.742 49.9947L209.533 50.5919V49.8667C209.533 49.6108 209.747 49.6534 210.045 49.6108H211.581L212.733 49.6534C213.031 49.6534 213.287 49.9094 213.287 50.2506V50.6346C213.287 51.0185 212.989 51.3171 212.605 51.3171H211.538H209.064L207.742 51.3597V51.9143V51.8716Z" fill="#0084AE"/>
<path fill-rule="evenodd" clip-rule="evenodd" d="M207.785 51.8716H213.799C214.524 51.8716 215.164 52.5114 215.164 53.2793V53.9618C215.164 54.9429 214.396 55.6254 213.458 55.6254H208.936C208.296 55.6254 207.699 55.1989 207.699 54.5163L207.742 53.8765L209.576 53.2793V54.0471C209.576 54.3031 209.832 54.3031 210.088 54.3031H211.624L212.775 54.2604C213.117 54.2604 213.373 53.9618 213.33 53.6205V53.2366C213.33 52.8527 213.031 52.5114 212.647 52.5114H211.581H209.107L207.742 52.4688V51.8716H207.785V51.8716Z" fill="#0084AE"/>
<path fill-rule="evenodd" clip-rule="evenodd" d="M209.491 54.3034L209.533 50.1656L207.699 49.9097V54.3887L209.491 54.3034Z" fill="#0084AE"/>
<path fill-rule="evenodd" clip-rule="evenodd" d="M229.753 51.8291H235.683C236.408 51.8291 237.005 51.2319 237.005 50.5068V49.8669C237.005 48.9284 236.237 48.2886 235.299 48.2886H230.905C230.265 48.2886 229.668 48.7151 229.668 49.355L229.711 49.9522L231.502 50.5494V49.8242C231.502 49.5683 231.716 49.611 232.014 49.5683H233.55L234.702 49.611C235 49.611 235.256 49.8669 235.256 50.2082V50.5921C235.256 50.976 234.957 51.2746 234.574 51.2746H233.507H231.033L229.711 51.3173V51.8718H229.753V51.8291Z" fill="#0084AE"/>
<path fill-rule="evenodd" clip-rule="evenodd" d="M229.753 51.8286H235.768C236.493 51.8286 237.133 52.4685 237.133 53.2363V53.9188C237.133 54.9 236.365 55.5825 235.427 55.5825H230.99C230.35 55.5825 229.753 55.1559 229.753 54.4734L229.796 53.8335L231.63 53.2363V54.0041C231.63 54.2601 231.886 54.2601 232.142 54.2601H233.678L234.829 54.2174C235.171 54.2174 235.427 53.9188 235.384 53.5776V53.1937C235.384 52.8097 235.085 52.4685 234.701 52.4685H233.635H231.161L229.796 52.4258V51.8286H229.753V51.8286Z" fill="#0084AE"/>
<path fill-rule="evenodd" clip-rule="evenodd" d="M231.502 54.3031L231.545 50.1227L229.71 49.9094V54.3458L231.502 54.3031Z" fill="#0084AE"/>
<path fill-rule="evenodd" clip-rule="evenodd" d="M116.028 55.6256V48.2458H117.905V51.1892H121.702V48.2458H123.579V55.6256H121.744V52.5116L117.863 52.4689V55.6256H116.028Z" fill="#0084AE"/>
<path fill-rule="evenodd" clip-rule="evenodd" d="M124.688 48.2458H126.565V53.3221L124.688 54.1326V48.2458Z" fill="#0084AE"/>
<path fill-rule="evenodd" clip-rule="evenodd" d="M133.177 55.6256H135.011V48.2458H133.177V55.6256Z" fill="#0084AE"/>
<path fill-rule="evenodd" clip-rule="evenodd" d="M192.129 51.1035C194.049 51.1035 196.011 51.1035 197.931 51.1035C198.101 51.1462 198.485 51.1888 198.784 51.4874C199.04 51.7007 199.125 51.914 199.21 52.1273C199.466 52.5965 199.466 53.0658 199.466 53.279V53.9616C199.466 54.9427 198.699 55.6252 197.76 55.6252H193.324C192.982 55.6252 192.556 55.6252 192.257 55.4119C192.001 55.2413 191.916 54.8574 191.916 54.5161V53.8336L193.75 53.1937V54.0469C193.75 54.3028 193.921 54.3881 194.177 54.3881C194.689 54.4308 195.457 54.3455 195.968 54.3881C196.182 54.3881 196.779 54.3881 197.12 54.3455C197.376 54.3028 197.419 54.1749 197.461 54.0895C197.504 54.0469 197.504 54.0042 197.547 53.9616C197.589 53.8336 197.632 53.7056 197.632 53.663C197.675 53.0231 197.589 52.7672 197.547 52.6392C197.547 52.5965 197.504 52.5539 197.504 52.5112C197.376 52.3832 197.206 52.3406 197.12 52.3406C196.694 52.3406 196.31 52.3406 195.883 52.3406C195.073 52.3406 194.262 52.3406 193.452 52.3406C193.025 52.3832 192.556 52.4259 192.129 52.4686C192.087 51.9993 192.087 51.5301 192.129 51.1035Z" fill="#0084AE"/>
<path fill-rule="evenodd" clip-rule="evenodd" d="M191.873 48.2458H193.75V53.3221L191.873 54.1326V48.2458Z" fill="#0084AE"/>
<path fill-rule="evenodd" clip-rule="evenodd" d="M200.362 55.6256H202.197V48.2458H200.362V55.6256Z" fill="#0084AE"/>
<path fill-rule="evenodd" clip-rule="evenodd" d="M143.628 54.2602C143.628 54.6868 143.628 55.1134 143.67 55.54C141.836 55.54 139.959 55.54 138.125 55.4973C137.912 55.4546 137.272 55.3267 136.717 54.7721C136.163 54.2176 136.077 53.5777 136.035 53.3644C136.035 52.3833 136.035 51.4022 135.992 50.4211C136.035 50.1225 136.205 49.4826 136.76 48.9707C137.101 48.6721 137.528 48.4162 138.423 48.2882C140.044 48.0322 142.945 48.0749 143.628 49.5679C143.713 49.7812 143.756 50.0798 143.756 50.0798C143.841 50.4637 143.798 50.7197 143.798 51.0183C143.756 51.4875 143.756 51.7008 143.628 51.9141C143.585 51.9567 143.329 52.3406 142.988 52.3833C142.348 52.426 141.793 51.4022 141.921 51.0183C141.921 50.9756 142.007 50.8476 142.007 50.677C142.007 50.677 142.007 50.5064 141.964 50.2931C141.836 49.9518 141.452 49.6106 140.94 49.4826C140.855 49.4399 140.855 49.4826 139.916 49.4826C139.277 49.4826 139.149 49.4826 138.85 49.5679C138.637 49.6532 138.423 49.6959 138.21 49.9518C137.997 50.2078 137.954 50.5064 137.954 50.7197C137.954 50.8476 137.954 50.8476 137.954 51.2315C137.954 51.5302 137.954 51.5728 137.912 51.8288C137.912 52.1274 137.912 52.1274 137.912 52.5966C137.912 53.1511 137.912 53.1085 137.912 53.2364C137.912 53.2364 137.997 53.7483 138.295 54.0469C138.551 54.3029 138.893 54.3455 139.66 54.3882C140.684 54.4309 141.495 54.3882 141.793 54.3882C142.263 54.2602 142.902 54.2602 143.628 54.2602Z" fill="#0084AE"/>
<path fill-rule="evenodd" clip-rule="evenodd" d="M137.784 52.3834C139.277 52.3834 140.727 52.3834 142.22 52.3834C142.433 52.3834 142.604 52.3834 142.732 52.3834C142.86 52.3834 142.988 52.3834 143.116 52.3407C143.201 52.2981 143.244 52.2981 143.287 52.2554L142.007 50.7197C142.007 50.805 141.922 51.1463 141.708 51.1463C140.343 51.1463 139.021 51.1036 137.656 51.1036L137.784 52.3834Z" fill="#0084AE"/>
<path fill-rule="evenodd" clip-rule="evenodd" d="M253.471 54.2602C253.471 54.6868 253.471 55.1134 253.513 55.54C251.679 55.54 249.802 55.54 247.968 55.4973C247.755 55.4546 247.115 55.3267 246.56 54.7721C246.006 54.2176 245.92 53.5777 245.878 53.3644C245.878 52.3833 245.878 51.4022 245.835 50.4211C245.878 50.1225 246.048 49.4826 246.603 48.9707C246.944 48.6721 247.371 48.4162 248.266 48.2882C249.887 48.0322 252.788 48.0749 253.471 49.5679C253.556 49.7812 253.599 50.0798 253.599 50.0798C253.684 50.4637 253.641 50.7197 253.641 51.0183C253.599 51.4875 253.599 51.7008 253.471 51.9141C253.428 51.9567 253.172 52.3406 252.831 52.3833C252.191 52.426 251.636 51.4022 251.764 51.0183C251.764 50.9756 251.85 50.8476 251.85 50.677C251.85 50.677 251.85 50.5064 251.807 50.2931C251.679 49.9518 251.295 49.6106 250.783 49.4826C250.698 49.4399 250.698 49.4826 249.759 49.4826C249.12 49.4826 248.992 49.4826 248.693 49.5679C248.48 49.6532 248.266 49.6959 248.053 49.9518C247.84 50.2078 247.797 50.5064 247.797 50.7197C247.797 50.8476 247.797 50.8476 247.797 51.2315C247.797 51.5302 247.797 51.5728 247.755 51.8288C247.755 52.1274 247.755 52.1274 247.755 52.5966C247.755 53.1511 247.755 53.1085 247.755 53.2364C247.755 53.2364 247.84 53.7483 248.138 54.0469C248.394 54.3029 248.736 54.3455 249.504 54.3882C250.527 54.4309 251.338 54.3882 251.636 54.3882C252.063 54.2602 252.703 54.2602 253.471 54.2602Z" fill="#0084AE"/>
<path fill-rule="evenodd" clip-rule="evenodd" d="M247.584 52.3834C249.077 52.3834 250.527 52.3834 252.02 52.3834C252.234 52.3834 252.404 52.3834 252.532 52.3834C252.66 52.3834 252.788 52.3834 252.916 52.3407C253.002 52.2981 253.044 52.2981 253.087 52.2554L251.807 50.7197C251.807 50.805 251.722 51.1463 251.509 51.1463C250.143 51.1463 248.821 51.1036 247.456 51.1036L247.584 52.3834Z" fill="#0084AE"/>
<path fill-rule="evenodd" clip-rule="evenodd" d="M260.68 55.6256H258.888V49.227C258.888 48.6724 259.315 48.2458 259.869 48.2458H261.661H265.671V49.5682L260.978 49.5256C260.808 49.5256 260.68 49.6535 260.68 49.8242V55.6256Z" fill="#0084AE"/>
<rect x="292.545" y="54.3887" width="9.21401" height="1.23707" fill="#0084AE"/>
<path fill-rule="evenodd" clip-rule="evenodd" d="M293.1 54.6444L295.872 48.971C296.384 47.9045 297.92 47.9045 298.474 48.971L301.119 54.3885L300.309 54.9857L298.858 54.9004L299.242 54.3885L297.323 49.6961C297.28 49.6108 297.152 49.6108 297.109 49.6961L294.849 54.9004L293.1 54.6444Z" fill="#0084AE"/>
</svg>
