<svg width="22" height="19" viewBox="0 0 22 19" fill="none" xmlns="http://www.w3.org/2000/svg">
<path d="M8.33317 17.1668C7.68524 17.1668 7.79534 16.9222 7.57187 16.3052L5.6665 10.0345L20.3332 1.3335" fill="#C8DAEA"/>
<path d="M8.3335 17.1665C8.8335 17.1665 9.05441 16.9378 9.3335 16.6665L12.0002 14.0735L8.67383 12.0676" fill="#A9C9DD"/>
<path d="M8.67328 12.0683L16.7333 18.0232C17.653 18.5306 18.3168 18.2679 18.5459 17.1692L21.8268 1.70874C22.1627 0.362037 21.3134 -0.248763 20.4335 0.150704L1.16855 7.5792C-0.146468 8.10665 -0.138802 8.8403 0.928848 9.1672L5.87268 10.7103L17.3182 3.48942C17.8585 3.16177 18.3544 3.33792 17.9474 3.69915" fill="url(#paint0_linear)"/>
<defs>
<linearGradient id="paint0_linear" x1="9.49628" y1="9.22852" x2="11.6332" y2="16.141" gradientUnits="userSpaceOnUse">
<stop stop-color="#EFF7FC"/>
<stop offset="1" stop-color="white"/>
</linearGradient>
</defs>
</svg>
