<svg width="125" height="177" viewBox="0 0 125 177" fill="none" xmlns="http://www.w3.org/2000/svg">
<path fill-rule="evenodd" clip-rule="evenodd" d="M62.4998 176.022C60.9891 176.022 59.7642 174.796 59.7642 173.283V151.366C59.7642 149.853 60.9891 148.626 62.4998 148.626C64.0109 148.626 65.2358 149.853 65.2358 151.366V173.283C65.2358 174.796 64.0109 176.022 62.4998 176.022Z" fill="#E3E1E1"/>
<path fill-rule="evenodd" clip-rule="evenodd" d="M4.44416 158.595C2.93313 158.595 1.70856 157.368 1.70856 155.856V133.939C1.70856 132.426 2.93313 131.199 4.44416 131.199C5.95485 131.199 7.17977 132.426 7.17977 133.939V155.856C7.17977 157.368 5.95485 158.595 4.44416 158.595Z" fill="#E3E1E1"/>
<path fill-rule="evenodd" clip-rule="evenodd" d="M120.989 158.595C119.478 158.595 118.254 157.368 118.254 155.856V133.939C118.254 132.426 119.478 131.199 120.989 131.199C122.5 131.199 123.724 132.426 123.724 133.939V155.856C123.724 157.368 122.5 158.595 120.989 158.595Z" fill="#E3E1E1"/>
<path fill-rule="evenodd" clip-rule="evenodd" d="M28.1528 171.433C26.6421 171.433 25.4175 170.207 25.4175 168.694V146.777C25.4175 145.264 26.6421 144.037 28.1528 144.037C29.6635 144.037 30.8884 145.264 30.8884 146.777V168.694C30.8884 170.207 29.6635 171.433 28.1528 171.433Z" fill="#E3E1E1"/>
<path fill-rule="evenodd" clip-rule="evenodd" d="M97.1512 171.433C95.6401 171.433 94.4152 170.207 94.4152 168.694V146.777C94.4152 145.264 95.6401 144.037 97.1512 144.037C98.6619 144.037 99.8868 145.264 99.8868 146.777V168.694C99.8868 170.207 98.6619 171.433 97.1512 171.433Z" fill="#E3E1E1"/>
<path fill-rule="evenodd" clip-rule="evenodd" d="M61.5495 176.022H63.4502C64.4358 176.022 65.2358 175.221 65.2358 174.234V171.304H59.7642V174.234C59.7642 175.221 60.5638 176.022 61.5495 176.022Z" fill="#656265"/>
<path fill-rule="evenodd" clip-rule="evenodd" d="M3.49417 158.595H5.39451C6.38053 158.595 7.17977 157.794 7.17977 156.807V153.877H1.70856V156.807C1.70856 157.794 2.50815 158.595 3.49417 158.595Z" fill="#656265"/>
<path fill-rule="evenodd" clip-rule="evenodd" d="M120.039 158.595H121.939C122.925 158.595 123.724 157.794 123.724 156.807V153.877H118.254V156.807C118.254 157.794 119.053 158.595 120.039 158.595Z" fill="#656265"/>
<path fill-rule="evenodd" clip-rule="evenodd" d="M27.2024 171.433H29.1031C30.0891 171.433 30.8883 170.632 30.8883 169.645V166.715H25.4171V169.645C25.4171 170.632 26.2167 171.433 27.2024 171.433Z" fill="#656265"/>
<path fill-rule="evenodd" clip-rule="evenodd" d="M96.2008 171.433H98.1008C99.0872 171.433 99.8864 170.632 99.8864 169.645V166.715H94.4152V169.645C94.4152 170.632 95.2148 171.433 96.2008 171.433Z" fill="#656265"/>
<path fill-rule="evenodd" clip-rule="evenodd" d="M124.964 135.073C124.964 146.252 96.998 155.315 62.5005 155.315C28.0031 155.315 0.0373466 146.252 0.0373466 135.073C0.0373466 134.55 -0.0602412 131.168 0.0600821 130.655C2.50957 120.201 29.6169 114.83 62.5005 114.83C95.4901 114.83 122.651 120.278 124.949 130.779C125.054 131.259 124.964 134.584 124.964 135.073Z" fill="#656265"/>
<path fill-rule="evenodd" clip-rule="evenodd" d="M124.964 131.199C124.964 142.379 96.9979 151.442 62.5005 151.442C28.003 151.442 0.0372925 142.379 0.0372925 131.199C0.0372925 120.019 28.003 110.956 62.5005 110.956C96.9979 110.956 124.964 120.019 124.964 131.199Z" fill="#D6D5D0"/>
<mask id="mask0" mask-type="alpha" maskUnits="userSpaceOnUse" x="11" y="115" width="103" height="33">
<path d="M113.755 131.199C113.755 139.983 90.8076 147.104 62.5005 147.104C34.1934 147.104 11.2459 139.983 11.2459 131.199C11.2459 122.415 34.1934 115.294 62.5005 115.294C90.8076 115.294 113.755 122.415 113.755 131.199Z" fill="white"/>
</mask>
<g mask="url(#mask0)">
<path fill-rule="evenodd" clip-rule="evenodd" d="M113.755 131.199C113.755 139.983 90.8076 147.104 62.5005 147.104C34.1934 147.104 11.2459 139.983 11.2459 131.199C11.2459 122.415 34.1934 115.294 62.5005 115.294C90.8076 115.294 113.755 122.415 113.755 131.199Z" fill="url(#paint0_linear)"/>
</g>
<path fill-rule="evenodd" clip-rule="evenodd" d="M78.961 37.3586C82.1863 40.0208 86.193 45.4293 90.1305 47.0924C91.3029 47.5881 93.5691 47.7906 94.1372 48.7419C94.1372 48.7419 94.3837 49.735 95.0934 50.3046C95.8073 50.8749 96.375 51.3015 95.949 51.5877C95.5209 51.8725 93.8535 51.0216 93.8535 51.0216C93.8535 51.0216 93.425 51.5912 93.283 52.4459C93.1413 53.3013 94.2575 54.1241 93.6639 54.252C92.3344 54.5371 90.7223 54.3473 90.7223 53.777C90.7223 53.206 90.2931 51.449 89.369 50.878C88.4435 50.3102 77.2639 45.9036 74.2058 44.1938C71.1456 42.4837 68.5216 37.7692 68.5947 36.6272C68.6657 35.4881 71.4398 32.9944 71.4398 32.9944L78.961 37.3586Z" fill="#C89B8E"/>
<path fill-rule="evenodd" clip-rule="evenodd" d="M91.5754 54.1557C92.3344 54.1557 93.9476 54.4415 94.4198 54.1557C94.8962 53.8713 95.1802 51.8756 94.7066 51.7803C94.2316 51.6875 93.8535 51.8756 93.8535 52.3512C93.8535 52.8272 94.0423 53.2769 94.0423 53.2769L92.4299 53.2058L91.5754 54.1557Z" fill="#C89B8E"/>
<path fill-rule="evenodd" clip-rule="evenodd" d="M77.1506 96.537C76.6175 99.3932 71.8889 120.955 72.0648 123.06C72.2387 125.163 74.046 132.392 74.4769 132.581C74.9078 132.769 64.9252 127.243 64.9252 127.243C64.9252 127.243 66.3771 123.655 66.6534 123.062C66.9266 122.467 66.0203 109.95 67.0917 104.236C68.162 98.5217 77.1506 96.537 77.1506 96.537Z" fill="#DEBEAF"/>
<path fill-rule="evenodd" clip-rule="evenodd" d="M75.3464 131.681C75.5933 130.48 75.7067 128.802 75.3849 128.359C74.7392 127.458 73.9536 127.49 73.4891 128.4C73.0288 129.311 73.1736 132.266 73.1736 132.266L75.3464 131.681Z" fill="#1D566D"/>
<path fill-rule="evenodd" clip-rule="evenodd" d="M65.8811 124.588C64.5019 125.868 62.965 126.909 62.8104 129.033C63.7166 130.985 76.8091 138.449 76.8091 138.449C76.8091 138.449 78.1988 139.149 78.7612 137.544C79.1474 136.445 76.5178 134.44 75.3201 131.283C72.8003 131.814 73.5307 129.226 71.8496 129.19C67.6838 129.111 65.8811 124.588 65.8811 124.588Z" fill="#1D566D"/>
<path fill-rule="evenodd" clip-rule="evenodd" d="M66.8612 130.777C64.2942 128.919 62.858 128.421 62.858 128.421C62.6163 128.792 61.9486 129.681 62.2801 129.981C62.6103 130.283 72.2386 137.537 76.2604 139.027C77.2502 139.394 78.5423 138.284 78.485 138.116C78.1436 138.508 77.6574 138.49 77.0477 138.22C70.8301 135.482 69.5824 132.74 66.8612 130.777Z" fill="#1C1C1A"/>
<path fill-rule="evenodd" clip-rule="evenodd" d="M76.691 134.059L74.388 132.734C74.3247 132.696 74.2897 132.623 74.3023 132.552C74.3118 132.479 74.366 132.422 74.4394 132.407L75.1743 132.25L73.2373 131.276C73.161 131.235 73.1253 131.149 73.1481 131.068C73.1698 130.988 73.246 130.932 73.3321 130.942L75.3331 131.106H75.3359C75.4318 131.114 75.5049 131.198 75.4954 131.298C75.4853 131.394 75.3999 131.466 75.3041 131.457L74.2068 131.368L75.7784 132.16C75.8477 132.192 75.8833 132.266 75.8763 132.342C75.8637 132.416 75.8102 132.473 75.7368 132.492L74.9641 132.655L76.8687 133.753C76.9522 133.802 76.9809 133.909 76.933 133.992C76.8984 134.051 76.8379 134.083 76.777 134.083L76.691 134.059Z" fill="#FFFFFE"/>
<path fill-rule="evenodd" clip-rule="evenodd" d="M79.9957 53.3058C78.7557 58.6933 78.1352 61.1779 77.7207 63.2495C77.7207 63.2495 77.6574 86.2641 77.826 93.6724C76.5857 100.715 74.826 114.515 74.826 114.515L66.551 113.478C66.551 113.478 64.1501 100.185 68.288 94.3849C64.977 77.399 63.0413 70.8893 61.1822 66.2269C60.0944 63.509 59.9941 58.9588 64.5443 51.9162C69.0938 44.8733 79.9957 53.3058 79.9957 53.3058Z" fill="#0A0B09"/>
<path fill-rule="evenodd" clip-rule="evenodd" d="M60.5537 91.2111C58.0713 92.0399 50.2136 93.6971 47.7315 95.1469C45.2488 96.5992 43.594 99.0821 42.559 100.532C41.5261 101.982 41.9385 94.7326 41.9385 92.455C41.9385 90.1764 42.1473 88.7258 44.2142 88.7258C46.2814 88.7258 52.4861 88.9339 57.0366 85.8268C61.589 82.7194 60.5537 91.2111 60.5537 91.2111Z" fill="#C89B8E"/>
<path fill-rule="evenodd" clip-rule="evenodd" d="M77.3083 64.0769C78.7557 71.1198 82.0635 82.6163 80.5137 86.9651C78.961 91.315 55.384 94.4217 55.384 94.4217L53.6767 87.4303C53.6767 87.4303 62.5187 82.5119 66.2414 82.2019C69.9637 81.8901 62.8293 67.702 62.8293 67.702L77.3083 64.0769Z" fill="#0A0B09"/>
<path fill-rule="evenodd" clip-rule="evenodd" d="M43.6916 100.139C44.85 99.7348 46.345 98.9716 46.5601 98.4704C47.0012 97.4536 46.5706 96.7938 45.5538 96.8617C44.5377 96.9311 42.0763 98.5716 42.0763 98.5716L43.6916 100.139Z" fill="#1D566D"/>
<path fill-rule="evenodd" clip-rule="evenodd" d="M44.9211 88.3644C43.1191 87.8341 41.437 87.0452 39.5356 88.0029C38.325 89.7824 38.6398 104.869 38.6398 104.869C38.6398 104.869 38.7524 106.422 40.4156 106.083C41.558 105.851 41.9291 102.562 44.0215 99.9134C42.2733 98.0198 44.8683 97.3199 44.0362 95.8543C41.9683 92.2316 44.9211 88.3644 44.9211 88.3644Z" fill="#1D566D"/>
<path fill-rule="evenodd" clip-rule="evenodd" d="M40.1186 92.3804C40.3942 89.2187 40.0843 87.7303 40.0843 87.7303C39.6429 87.7121 38.5394 87.5933 38.4509 88.033C38.3613 88.4722 37.0819 100.469 37.8643 104.691C38.0588 105.73 39.6723 106.273 39.7881 106.138C39.275 106.046 39.0417 105.617 38.9598 104.957C38.1224 98.205 39.8301 95.7263 40.1186 92.3804Z" fill="#1C1C1A"/>
<path fill-rule="evenodd" clip-rule="evenodd" d="M42.3429 102.513L42.3012 99.8537C42.2981 99.7812 42.3429 99.7136 42.4125 99.686C42.4789 99.66 42.558 99.6758 42.6094 99.7297L43.1138 100.279L42.9581 98.1186C42.9543 98.0335 43.0088 97.9572 43.0882 97.9351C43.1708 97.9123 43.2568 97.9509 43.2943 98.0276L44.1795 99.8348C44.224 99.9241 44.1865 100.028 44.1001 100.073C44.0113 100.115 43.9036 100.08 43.8623 99.9903L43.3765 99.0023L43.5006 100.759C43.5066 100.836 43.4656 100.906 43.3953 100.934C43.3261 100.963 43.2467 100.947 43.1963 100.893L42.6601 100.308L42.6947 102.51C42.6979 102.609 42.6181 102.688 42.5202 102.688H42.5143C42.4191 102.688 42.3429 102.609 42.3429 102.513Z" fill="#FFFFFE"/>
<path fill-rule="evenodd" clip-rule="evenodd" d="M78.1621 94.1767C78.1621 87.6109 77.7207 63.5594 77.7207 63.5594C78.1226 61.5537 78.4171 59.3861 79.5808 54.3427L76.946 54.9637C76.0131 57.9156 74.4636 60.2468 74.4636 63.1972C74.4636 66.1484 76.6123 92.7791 76.1446 94.1767C75.7459 95.3838 72.8162 108.888 72.7952 114.249L74.9809 114.41C74.9809 114.41 76.9218 101.22 78.1621 94.1767Z" fill="#1C1C1A"/>
<path fill-rule="evenodd" clip-rule="evenodd" d="M84.0625 2.71057C86.1328 5.68347 87.3801 10.2691 90.186 10.3871C92.9916 10.5052 96.4589 9.64523 97.5569 12.0633C95.9469 11.2383 93.6765 11.3932 92.9101 12.279C92.9101 12.279 94.4834 11.0264 96.4883 13.07C92.7733 13.3236 91.8978 15.7595 88.8884 17.2139C85.8771 18.6631 80.8529 20.598 80.2034 15.6607C79.5546 10.7238 84.0625 2.71057 84.0625 2.71057Z" fill="#211410"/>
<path fill-rule="evenodd" clip-rule="evenodd" d="M81.9726 34.573C79.9156 37.1385 83.5655 31.646 82.4389 30.4781C81.9215 28.9102 80.6728 25.847 80.1793 25.3699C79.5728 24.7821 78.4119 24.298 77.0855 23.4542C76.237 20.0483 79.3419 17.2558 81.7117 15.9195C81.7117 15.9195 73.4674 3.04355 73.4993 7.34054C73.5227 11.6431 70.9043 21.0964 66.956 22.9277C68.5765 23.705 73.4024 28.9292 75.7242 30.7829C78.3461 32.8801 83.2423 32.9897 81.9726 34.573Z" fill="#DEBEAF"/>
<path fill-rule="evenodd" clip-rule="evenodd" d="M83.0982 40.9837C83.8621 39.0155 85.1448 37.2413 84.214 34.2372C83.7656 32.7916 83.5687 32.3607 82.1972 29.4102C81.8485 28.4361 80.6421 25.5665 79.9695 25.0607C79.4088 24.64 78.7089 24.4291 78.7089 24.4291C79.1867 24.7111 80.8603 26.6804 81.2885 29.1762C79.6596 29.565 75.3835 28.8256 74.2293 28.3989C71.8973 27.5407 71.8469 24.702 67.5335 22.3407C66.7906 22.96 64.8199 23.7128 63.9136 24.8775C62.3134 27.8339 65.5552 33.0438 67.1316 38.1345C68.7602 43.3804 67.4499 45.5557 67.523 48.3027C67.0819 50.5936 64.4894 55.4454 65.3117 55.6906C71.9417 58.3552 79.4941 60.6514 79.6858 59.2099C81.1965 47.7051 82.6201 42.208 83.0982 40.9837Z" fill="#227C9C"/>
<path fill-rule="evenodd" clip-rule="evenodd" d="M63.759 24.9819C62.1588 27.9408 65.0668 31.4363 65.6212 36.7375C66.1938 42.2126 65.6055 45.2811 65.6761 48.0273C65.2375 50.3207 62.2168 54.7185 63.036 54.9655C65.0406 55.7715 67.4467 56.8189 69.9637 57.4497C70.8353 54.8138 71.1799 51.7033 72.1358 46.8861C73.1106 41.973 74.4818 37.3744 72.1337 30.2344C70.7007 25.894 68.1071 23.9012 66.4957 22.9421C65.5845 23.3415 64.376 24.1853 63.759 24.9819Z" fill="#1D566D"/>
<path fill-rule="evenodd" clip-rule="evenodd" d="M56.3168 41.4411C57.6666 41.1917 61.6729 28.3768 63.5033 25.8697C65.829 22.6786 69.4222 26.0459 69.4747 27.9102C69.5457 30.5083 68.2925 32.5389 68.2925 32.5389C68.2925 32.5389 62.1773 43.822 60.3119 46.4026L44.6787 48.0234L43.9036 46.1605C43.9036 46.1605 51.0628 42.4153 56.3168 41.4411Z" fill="#DEBEAF"/>
<path fill-rule="evenodd" clip-rule="evenodd" d="M70.1316 7.75701C71.0197 1.82137 75.2362 -0.290515 79.9407 0.418819C84.6529 1.11624 86.689 5.23914 85.8016 11.1688C85.6358 12.3041 85.3864 13.3826 85.0632 14.3862C85.1132 14.9498 85.2105 15.5965 85.3833 16.3902C85.3336 16.8691 84.6617 16.9791 83.9681 16.972C82.4623 19.6948 79.4811 21.4687 76.5147 21.0322C71.8102 20.3243 69.2494 13.6863 70.1316 7.75701Z" fill="#DEBEAF"/>
<path fill-rule="evenodd" clip-rule="evenodd" d="M77.6021 0.0339449C75.1306 -0.0609833 73.3156 0.432573 71.9728 1.28868L71.9231 1.30234C67.5855 3.80305 67.5855 5.25499 66.3645 6.10584C62.1381 9.05107 60.8929 7.9354 60.8929 7.9354C60.8929 7.9354 62.5529 10.1478 63.4197 10.0441C60.2465 12.1315 59.8075 7.23062 57.4483 7.60193C60.4329 10.303 57.1734 15.6638 65.1535 17.1907C68.1746 17.7694 75.9763 16.5213 76.1183 14.0816C75.869 13.8336 75.6612 13.5996 75.4779 13.3659C75.3625 12.149 75.8585 10.1349 76.933 10.1401C77.5713 10.1401 78.217 11.377 78.217 11.377L82.3647 6.80852L85.8614 6.00146C86.5004 4.86547 84.8089 0.308571 77.6021 0.0339449Z" fill="#211410"/>
<path fill-rule="evenodd" clip-rule="evenodd" d="M76.933 10.14C77.5713 10.14 78.217 11.3769 78.217 11.3769L82.3647 6.80841L85.8614 6.00134C86.477 4.90249 84.9086 0.635275 78.3279 0.0905762C76.2422 2.99867 76.1233 10.1372 76.933 10.14Z" fill="#4A1E1C"/>
<path fill-rule="evenodd" clip-rule="evenodd" d="M53.6795 6.3244C56.1084 6.39025 54.6561 10.6053 57.399 13.8742C60.1434 17.1427 69.005 18.9873 72.6797 16.2036C66.9686 14.8508 61.4365 15.2116 59.1003 11.9364C56.7705 8.66082 57.0993 6.78117 55.7701 6.18393C53.7316 5.26407 53.6795 6.3244 53.6795 6.3244Z" fill="#211410"/>
<path fill-rule="evenodd" clip-rule="evenodd" d="M52.1268 47.0408C50.3325 46.7343 46.1603 47.7272 44.5769 48.488C42.9931 49.248 40.5863 49.9212 39.8717 49.9408C39.1571 49.9622 34.9493 48.261 35.4505 47.0422C35.9497 45.8209 37.6258 45.9396 37.6258 45.9396C37.6258 45.9396 36.6408 45.5456 36.2253 45.0213C35.808 44.498 36.7723 44.7495 39.3677 44.7495C40.1428 44.7495 40.9773 43.8963 43.749 44.4521C47.1226 45.1295 51.5567 42.9492 51.5567 42.9492L52.1268 47.0408Z" fill="#DEBEAF"/>
<path fill-rule="evenodd" clip-rule="evenodd" d="M39.9472 49.8128C39.7668 49.5284 39.2201 48.8426 39.7171 48.4787C40.211 48.1127 40.1865 48.1075 40.4334 48.0115C40.7832 47.877 40.6468 47.566 40.1823 47.5856C39.5142 47.6161 38.624 48.1975 38.5219 48.4395C38.4194 48.6843 38.1928 48.9151 38.3582 49.1761C38.942 50.1102 39.9472 49.8128 39.9472 49.8128Z" fill="#DEBEAF"/>
<path fill-rule="evenodd" clip-rule="evenodd" d="M39.3096 47.6816C39.5666 47.4486 40.2575 47.2476 40.0007 47.0413C39.5226 46.6585 38.6369 47.117 38.4841 47.228C37.9902 47.5926 37.3445 47.8374 37.3372 48.2658C37.334 48.5302 37.3053 48.6815 37.8408 48.9046C38.3767 49.1298 38.3582 48.789 38.3582 48.789L39.3096 47.6816Z" fill="#DEBEAF"/>
<path fill-rule="evenodd" clip-rule="evenodd" d="M39.2229 46.6531C39.2435 46.458 39.1995 46.3421 38.7685 46.3582C37.9571 46.39 37.6891 46.7725 37.2344 47.0412C36.7797 47.308 36.1281 47.4804 36.2467 47.8373C36.3649 48.1921 37.0291 48.502 37.4156 47.9735C37.9067 47.3003 39.2229 46.6531 39.2229 46.6531Z" fill="#DEBEAF"/>
<path fill-rule="evenodd" clip-rule="evenodd" d="M38.3008 46.284C38.3582 46.1667 38.2064 45.7201 37.6996 45.8182C37.1952 45.9141 36.6481 46.0549 36.2253 46.3029C35.8048 46.5495 35.3484 47.057 35.4589 47.3866C35.5659 47.7158 36.5065 48.4159 36.7436 47.8562C37.284 46.5743 38.3008 46.284 38.3008 46.284Z" fill="#DEBEAF"/>
<defs>
<linearGradient id="paint0_linear" x1="103.395" y1="113.228" x2="91.042" y2="169.602" gradientUnits="userSpaceOnUse">
<stop stop-color="#282A27"/>
<stop offset="1" stop-color="#3A3B38"/>
</linearGradient>
</defs>
</svg>
